# stunning-octo-umbrella
(dec25 <- filter(flights, month == 12, day == 25))
#> # A tibble: 719 x 19
#>    year month   day dep_time sched_dep_time dep_delay arr_time
#>   <int> <int> <int>    <int>          <int>     <dbl>    <int>
#> 1  2013    12    25      456            500        -4      649
#> 2  2013    12    25      524            515         9      805
#> 3  2013    12    25      542            540         2      832
#> 4  2013    12    25      546            550        -4     1022
#> 5  2013    12    25      556            600        -4      730
#> 6  2013    12    25      557            600        -3      743
#> # … with 713 more rows, and 12 more variables: sched_arr_time <int>,
#> #   arr_delay <dbl>, carrier <chr>, flight <int>, tailnum <chr>,
#> #   origin <chr>, dest <chr>, air_time <dbl>, distance <dbl>, hour <dbl>,
#> #   minute <dbl>, time_hour <dttm>
